[
  {
    "model": "reimbursements.requesttype",
    "pk": 1,
    "fields": {
      "name": "Travel",
      "deleted": false
    }
  },
  {
    "model": "reimbursements.requesttype",
    "pk": 2,
    "fields": {
      "name": "Equipment",
      "deleted": false
    }
  },
  {
    "model": "reimbursements.requesttype",
    "pk": 3,
    "fields": {
      "name": "Small Events",
      "deleted": false
    }
  },
  {
    "model": "reimbursements.requesttype",
    "pk": 4,
    "fields": {
      "name": "Hardware",
      "deleted": false
    }
  },
  {
    "model": "reimbursements.requesttype",
    "pk": 5,
    "fields": {
      "name": "Hosting",
      "deleted": false
    }
  },
  {
    "model": "reimbursements.requesttype",
    "pk": 6,
    "fields": {
      "name": "Marketing",
      "deleted": false
    }
  },
  {
    "model": "reimbursements.requesttype",
    "pk": 7,
    "fields": {
      "name": "Professional Services",
      "deleted": false
    }
  },
  {
    "model": "reimbursements.requesttype",
    "pk": 8,
    "fields": {
      "name": "Other",
      "deleted": false
    }
  },
  {
    "model": "reimbursements.expensetype",
    "pk": 1,
    "fields": {
      "name": "Flight Tickets",
      "deleted": false,
      "request_types": [
        1
      ]
    }
  },
  {
    "model": "reimbursements.expensetype",
    "pk": 2,
    "fields": {
      "name": "Accommodation",
      "deleted": false,
      "request_types": [
        1,
        3
      ]
    }
  },
  {
    "model": "reimbursements.expensetype",
    "pk": 3,
    "fields": {
      "name": "Meal",
      "deleted": false,
      "request_types": [
        3,
        8
      ]
    }
  },
  {
    "model": "reimbursements.expensetype",
    "pk": 4,
    "fields": {
      "name": "Network Gear",
      "deleted": false,
      "request_types": [
        2,
        3,
        4
      ]
    }
  },
  {
    "model": "reimbursements.expensetype",
    "pk": 5,
    "fields": {
      "name": "Other",
      "deleted": false,
      "request_types": [
        1,
        2,
        3,
        4,
        5,
        6,
        7,
        8
      ]
    }
  },
  {
    "model": "reimbursements.expensetype",
    "pk": 7,
    "fields": {
      "name": "Taxi",
      "deleted": false,
      "request_types": [
        1,
        3
      ]
    }
  },
  {
    "model": "reimbursements.expensetype",
    "pk": 9,
    "fields": {
      "name": "Public Transit",
      "deleted": false,
      "request_types": [
        1,
        3
      ]
    }
  }
]
